dma_waves.vcd
$date
	Mon May 25 20:49:46 2026
$end
$version
	Icarus Verilog
$end
$timescale
	1ps
$end
$scope module tb_master_dma_top $end
$var wire 1 ! done $end
$var wire 1 " WVALID $end
$var wire 32 # WDATA [31:0] $end
$var wire 1 $ RREADY $end
$var wire 1 % BREADY $end
$var wire 1 & AWVALID $end
$var wire 32 ' AWADDR [31:0] $end
$var wire 1 ( ARVALID $end
$var wire 32 ) ARADDR [31:0] $end
$var reg 1 * ARREADY $end
$var reg 1 + AWREADY $end
$var reg 1 , BVALID $end
$var reg 32 - RDATA [31:0] $end
$var reg 1 . RVALID $end
$var reg 1 / WREADY $end
$var reg 1 0 aw_accepted $end
$var reg 1 1 clk $end
$var reg 32 2 destination_address [31:0] $end
$var reg 5 3 length [4:0] $end
$var reg 1 4 reset $end
$var reg 32 5 source_address [31:0] $end
$var reg 1 6 trigger $end
$var reg 1 7 w_accepted $end
$scope module dut $end
$var wire 1 * ARREADY $end
$var wire 1 + AWREADY $end
$var wire 1 , BVALID $end
$var wire 32 8 RDATA [31:0] $end
$var wire 1 . RVALID $end
$var wire 1 / WREADY $end
$var wire 1 1 clk $end
$var wire 32 9 dest_add [31:0] $end
$var wire 1 ! done $end
$var wire 5 : length [4:0] $end
$var wire 1 4 rst $end
$var wire 32 ; src_add [31:0] $end
$var wire 1 6 trigger $end
$var wire 1 < write_done $end
$var wire 1 = read_done $end
$var wire 1 > fifo_we $end
$var wire 1 ? fifo_re $end
$var wire 1 @ fifo_full $end
$var wire 1 A fifo_empty $end
$var wire 32 B fifo_dout [31:0] $end
$var wire 32 C fifo_din [31:0] $end
$var wire 1 " WVALID $end
$var wire 32 D WDATA [31:0] $end
$var wire 1 $ RREADY $end
$var wire 1 % BREADY $end
$var wire 1 & AWVALID $end
$var wire 32 E AWADDR [31:0] $end
$var wire 1 ( ARVALID $end
$var wire 32 F ARADDR [31:0] $end
$scope module u1 $end
$var wire 1 * ARREADY $end
$var wire 32 G RDATA [31:0] $end
$var wire 1 $ RREADY $end
$var wire 1 . RVALID $end
$var wire 1 1 clk $end
$var wire 5 H length [4:0] $end
$var wire 1 4 rst $end
$var wire 32 I src_add [31:0] $end
$var wire 1 6 trigger $end
$var wire 1 @ fifo_full $end
$var reg 32 J ARADDR [31:0] $end
$var reg 1 ( ARVALID $end
$var reg 3 K bytes_from_bus [2:0] $end
$var reg 5 L bytes_remaining [4:0] $end
$var reg 32 M current_address [31:0] $end
$var reg 2 N current_offset [1:0] $end
$var reg 32 O extracted_data [31:0] $end
$var reg 32 P fifo_din [31:0] $end
$var reg 1 > fifo_we $end
$var reg 3 Q next_pack_count [2:0] $end
$var reg 32 R next_pack_reg [31:0] $end
$var reg 3 S pack_count [2:0] $end
$var reg 32 T pack_reg [31:0] $end
$var reg 1 = read_done $end
$var reg 2 U state [1:0] $end
$var reg 3 V valid_bytes_in_word [2:0] $end
$upscope $end
$scope module u3 $end
$var wire 1 + AWREADY $end
$var wire 1 , BVALID $end
$var wire 1 / WREADY $end
$var wire 1 1 clk $end
$var wire 32 W dest_add [31:0] $end
$var wire 5 X length [4:0] $end
$var wire 1 4 rst $end
$var wire 1 6 trigger $end
$var wire 1 A fifo_empty $end
$var wire 32 Y fifo_dout [31:0] $end
$var reg 32 Z AWADDR [31:0] $end
$var reg 1 & AWVALID $end
$var reg 1 % BREADY $end
$var reg 32 [ WDATA [31:0] $end
$var reg 1 " WVALID $end
$var reg 32 \ current_address [31:0] $end
$var reg 1 ? fifo_re $end
$var reg 3 ] state [2:0] $end
$var reg 3 ^ total_words_to_write [2:0] $end
$var reg 3 _ words_written [2:0] $end
$var reg 1 < write_done $end
$upscope $end
$scope module u_fifo $end
$var wire 1 1 clk $end
$var wire 32 ` din [31:0] $end
$var wire 32 a dout [31:0] $end
$var wire 1 ? rd_en $end
$var wire 1 4 rst $end
$var wire 1 > wr_en $end
$var wire 1 @ full $end
$var wire 1 A empty $end
$var reg 5 b count [4:0] $end
$var reg 4 c rd_ptr [3:0] $end
$var reg 4 d wr_ptr [3:0] $end
$upscope $end
$upscope $end
$upscope $end
$enddefinitions $end
#0
$dumpvars
bx d
bx c
bx b
bx a
bx `
bx _
bx ^
bx ]
bx \
bx [
bx Z
bx Y
b0 X
b0 W
bx V
bx U
bx T
bx S
bx R
bx Q
bx P
bx O
bx N
bx M
bx L
bx K
bx J
b0 I
b0 H
bx G
bx F
bx E
bx D
bx C
bx B
xA
x@
x?
x>
x=
x<
b0 ;
b0 :
b0 9
bx 8
x7
06
b0 5
14
b0 3
b0 2
01
x0
x/
x.
bx -
x,
x+
x*
bx )
x(
bx '
x&
x%
x$
bx #
x"
x!
$end
#5000
0$
b0 O
b0 K
b100 V
b0 C
b0 P
b0 `
0>
b0 Q
b0 R
0=
0(
b0 )
b0 F
b0 J
b0 S
b0 T
b0 N
b0 L
b0 M
b0 U
0@
1A
b0 b
b0 c
b0 d
b0 _
b0 ^
b0 \
0?
0%
0"
b0 #
b0 D
b0 [
0&
b0 '
b0 E
b0 Z
0!
0<
b0 ]
b0 -
b0 8
b0 G
0.
1*
07
00
0,
1/
1+
11
#10000
01
#15000
11
#20000
01
04
#25000
11
#30000
01
#35000
11
#40000
01
16
b1010 3
b1010 :
b1010 H
b1010 X
b10000000000000 2
b10000000000000 9
b10000000000000 W
b1000000000010 5
b1000000000010 ;
b1000000000010 I
#45000
b10 K
b10 V
b1 U
1(
b1000000000000 )
b1000000000000 F
b1000000000000 J
b1010 L
b10 N
b1000000000000 M
b1 ]
b10 ^
b10000000000000 \
11
#50000
01
06
#55000
b10 Q
b110011010001000000000000000000 R
b110011010001000000000000000000 O
1$
b10001001000100011001101000100 -
b10001001000100011001101000100 8
b10001001000100011001101000100 G
1.
0*
b10 U
0(
11
#60000
01
#65000
0$
b10001001000100011001101000100 O
b100 K
b100 V
b1 U
1(
b1000000000100 )
b1000000000100 F
b1000000000100 J
b1000 L
b0 N
b1000000000100 M
b10 S
b110011010001000000000000000000 T
1*
0.
11
#70000
01
#75000
b11001100110111010000000000000000 R
1>
b110011010001001010101010111011 C
b110011010001001010101010111011 P
b110011010001001010101010111011 `
b10101010101110111100110011011101 O
1$
b10101010101110111100110011011101 -
b10101010101110111100110011011101 8
b10101010101110111100110011011101 G
1.
0*
b10 U
0(
11
#80000
01
#85000
0$
b0 C
b0 P
b0 `
0>
b1 U
1(
b1000000001000 )
b1000000001000 F
b1000000001000 J
b100 L
b1000000001000 M
b11001100110111010000000000000000 T
0A
b1 b
b1 d
b110011010001001010101010111011 B
b110011010001001010101010111011 Y
b110011010001001010101010111011 a
1*
0.
11
#90000
01
#95000
b100010000000000000000 R
1>
b11001100110111011110111011111111 C
b11001100110111011110111011111111 P
b11001100110111011110111011111111 `
b11101110111111110000000000010001 O
1$
b11101110111111110000000000010001 -
b11101110111111110000000000010001 8
b11101110111111110000000000010001 G
1.
0*
b10 ]
1%
1"
1&
b110011010001001010101010111011 #
b110011010001001010101010111011 D
b110011010001001010101010111011 [
b10000000000000 '
b10000000000000 E
b10000000000000 Z
1?
b10 U
0(
11
#100000
01
#105000
0$
b0 K
b0 C
b0 P
b0 `
0>
b11 U
b0 L
b1000000001100 M
b100010000000000000000 T
b11001100110111011110111011111111 B
b11001100110111011110111011111111 Y
b11001100110111011110111011111111 a
b1 c
b10 d
0"
0&
0?
1*
0.
0/
0+
17
10
11
#110000
01
#115000
1,
b11 ]
b0 U
1=
11
#120000
01
#125000
0=
b1 ]
b1 _
b10000000000100 \
0%
1/
1+
07
00
0,
11
#130000
01
#135000
b10 ]
1%
1"
1&
b11001100110111011110111011111111 #
b11001100110111011110111011111111 D
b11001100110111011110111011111111 [
b10000000000100 '
b10000000000100 E
b10000000000100 Z
1?
11
#140000
01
#145000
1A
b0 b
bx B
bx Y
bx a
b10 c
0"
0&
0?
0/
0+
17
10
11
#150000
01
#155000
1,
b11 ]
11
#160000
01
#165000
b100 ]
b10 _
b10000000001000 \
0%
1/
1+
07
00
0,
11
#170000
01
#175000
b0 ]
1!
1<
11
#180000
01
#185000
0!
0<
11
